{
  "appName": "APP_NAME",
  "siteName": "Site name",
  "tmpPath": ".tmp",
  "sourcePath": "app",
  "destPath": "dist",
  "hbsPath": "templates",
  "staticPath": "static",
  "stylesPath": "static/css",
  "scriptsPath": "static/js",
  "imagesPath": "static/images",
  "pngPath": "static/png",
  "fontsPath": "static/fonts",
  "svgPath": "static/svg/sprite",
  "svgInlinePath": "static/svg/inline",
  "contentPath": "content",
  "metaPath": ".meta",
  "concatScripts": false,
  "cssMin": false,
  "imagemin": false,
  "criticalCss": false,
  "babel": true,
  "concatFilePath": "",
  "supportJsLibs": [
    "./node_modules/html5shiv/dist/html5shiv.js",
    "./node_modules/jquery/dist/jquery.js",
    "./node_modules/svg4everybody/dist/svg4everybody.js"
  ]
}
